Mini-Project 01 - Assessing the Impact of SFFA on Campus Diversity One-Year Later – STA 9750 Submission Material
…
Code

IPEDS <- IPEDS |>
  mutate(is_calpublic =
    str_detect(institution_name, "University of California") |
    str_detect(institution_name, "California State") |
    (str_detect(institution_name, "Community College") & state == "CA")
  )
IPEDS |>
  filter(is_calpublic) |>
  distinct(institution_name) |>
  arrange(institution_name)

# A tibble: 50 × 1
   institution_name                                
   <chr>                                           
 1 Antelope Valley Community College District      
 2 Barstow Community College                       
 3 Bethesda University of California               
 4 California State Polytechnic University-Humboldt
 5 California State Polytechnic University-Pomona  
 6 California State University Maritime Academy    
 7 California State University-Bakersfield         
 8 California State University-Channel Islands     
 9 California State University-Chico               
10 California State University-Dominguez Hills     
# ℹ 40 more rows
…
