Mini-Project 02 - How Do You Do ‘You Do You’? – STA 9750 Submission Material
…
Questions: ———————————————– read new datasets:

resp <- load_atus_data("resp")
act  <- load_atus_data("act")
rost <- load_atus_data("rost")

1.How many children under the age of 18 live in the respondent’s home?

We use the variable TRCHILDNUM, which directly reports the number of children under 18 in the household.

resp |>
  select(participant_id, children_u18)

# A tibble: 252,808 × 2
   participant_id children_u18
            <dbl>        <dbl>
 1        2.00e13            0
 2        2.00e13            2
 3        2.00e13            0
 4        2.00e13            2
 5        2.00e13            2
 6        2.00e13            1
 7        2.00e13            1
 8        2.00e13            1
 9        2.00e13            3
10        2.00e13            4
# ℹ 252,798 more rows

2. Is the respondent married?

We use the variable TRSPPRES, which indicates whether a spouse is present in the household.

resp |> select(participant_id, married)

# A tibble: 252,808 × 2
   participant_id married
            <dbl> <chr>  
 1        2.00e13 Yes    
 2        2.00e13 Yes    
 3        2.00e13 Yes    
 4        2.00e13 Yes    
 5        2.00e13 Yes    
 6        2.00e13 No     
 7        2.00e13 Yes    
 8        2.00e13 <NA>   
 9        2.00e13 Yes    
10        2.00e13 Yes    
# ℹ 252,798 more rows

3. What is the respondent’s employment status (employed, unemployed, retired, etc.)?

We use the variable TELFS, which classifies labor force status.

resp |> select(participant_id, employment_status)

# A tibble: 252,808 × 2
   participant_id employment_status
            <dbl> <chr>            
 1        2.00e13 Unemployed       
 2        2.00e13 Employed         
 3        2.00e13 Unemployed       
 4        2.00e13 Retired          
 5        2.00e13 Employed         
 6        2.00e13 Unemployed       
 7        2.00e13 Employed         
 8        2.00e13 Employed         
 9        2.00e13 Employed         
10        2.00e13 Employed         
# ℹ 252,798 more rows

4. Location of activity

We use the variable TEWHERE from the activity dataset.

act |> select(participant_id, activity_location)

# A tibble: 4,880,021 × 2
   participant_id activity_location
            <dbl> <chr>            
 1        2.00e13 Other            
 2        2.00e13 Unknown          
 3        2.00e13 Unknown          
 4        2.00e13 Home             
 5        2.00e13 Home             
 6        2.00e13 Home             
 7        2.00e13 Unknown          
 8        2.00e13 Unknown          
 9        2.00e13 Other            
10        2.00e13 Unknown          
# ℹ 4,880,011 more rows

5. Is the respondent enrolled in a college or university (not high school)?

We use this two variables: TESCHENR (enrollment status) TESCHLVL (education level)

resp |> select(participant_id, college_enrolled)

# A tibble: 252,808 × 2
   participant_id college_enrolled
            <dbl> <chr>           
 1        2.00e13 <NA>            
 2        2.00e13 No              
 3        2.00e13 No              
 4        2.00e13 No              
 5        2.00e13 <NA>            
 6        2.00e13 <NA>            
 7        2.00e13 No              
 8        2.00e13 No              
 9        2.00e13 No              
10        2.00e13 No              
# ℹ 252,798 more rows
…
